{
    "name": "Tests",
    "rootNamespace": "",
    "references": [
        "UnityEngine.TestRunner",
        "UnityEditor.TestRunner",
        "ScriptsProject",
        "Unity.Entities",
        "Unity.Entities.Editor.Tests",
        "Unity.Entities.Tests",
        "Unity.Entities.Hybrid.Tests",
        "Unity.Entities.Hybrid",
        "Zenject",
        "Unity.Mathematics",
        "Unity.Transforms"
    ],
    "includePlatforms": [],
    "excludePlatforms": [],
    "allowUnsafeCode": false,
    "overrideReferences": true,
    "precompiledReferences": [
        "nunit.framework.dll",
        "Zenject-usage.dll"
    ],
    "autoReferenced": true,
    "defineConstraints": [
        "UNITY_INCLUDE_TESTS"
    ],
    "versionDefines": [],
    "noEngineReferences": false
}